<svg width="24" height="24" viewBox="0 0 24 24" fill="none" xmlns="http://www.w3.org/2000/svg">
<path fill-rule="evenodd" clip-rule="evenodd" d="M18.4205 18.75H5.5797C4.93532 18.75 4.41235 18.1949 4.41235 17.5103V8.83106C4.41235 8.14583 4.93532 7.59076 5.5797 7.59076H18.4205C19.0649 7.59076 19.5878 8.14583 19.5878 8.83106V17.5103C19.5878 18.1949 19.0649 18.75 18.4205 18.75Z" stroke="#4F4F4F" stroke-linecap="round" stroke-linejoin="round"/>
<path fill-rule="evenodd" clip-rule="evenodd" d="M14.9184 13.1356C14.9184 14.7477 13.6121 16.054 12 16.054C10.3885 16.054 9.08167 14.7477 9.08167 13.1356C9.08167 11.5241 10.3885 10.2173 12 10.2173C13.6121 10.2173 14.9184 11.5241 14.9184 13.1356Z" stroke="#4F4F4F" stroke-linecap="round" stroke-linejoin="round"/>
<path d="M6.16333 9.92532H7.33067" stroke="#4F4F4F" stroke-linecap="round" stroke-linejoin="round"/>
<path fill-rule="evenodd" clip-rule="evenodd" d="M15.2283 5.244L16.5 7.5H8.25L9.52227 5.244C9.72086 4.788 10.131 4.5 10.5794 4.5H14.1706C14.6196 4.5 15.0297 4.788 15.2283 5.244Z" stroke="#4F4F4F" stroke-linecap="round" stroke-linejoin="round"/>
</svg>
