<svg width="24" height="24" viewBox="0 0 24 24" fill="none" xmlns="http://www.w3.org/2000/svg">
<path d="M19.3483 13.8047C19.7008 13.0884 19.9318 12.3287 20.0428 11.5547C20.1486 10.8084 20.1426 10.0487 20.0233 9.30394C19.7421 7.53769 18.8278 5.85169 17.2798 4.61419C14.5671 2.44444 10.5928 2.46469 7.89956 4.65919C5.29406 6.78319 4.52531 10.1814 5.58131 13.0652C5.87306 13.8654 5.64281 14.7639 5.03981 15.3662L3.43931 16.9667C2.85356 17.5524 2.85356 18.5027 3.43931 19.0884L4.02056 19.6689C4.60706 20.2554 5.55581 20.2554 6.14231 19.6689L7.74356 18.0684C8.35931 17.4519 9.27281 17.2532 10.0933 17.5457C11.6758 18.1127 13.4091 18.1322 14.9998 17.6019" stroke="#4F4F4F" stroke-linecap="round" stroke-linejoin="round"/>
<path fill-rule="evenodd" clip-rule="evenodd" d="M5.18481 9.52814C5.03631 10.6989 5.16306 11.8974 5.56431 13.0194C5.85756 13.8376 5.65581 14.7504 5.04156 15.3654L3.43956 16.9666C2.85381 17.5524 2.85381 18.5026 3.43956 19.0884L4.02081 19.6689C4.60656 20.2554 5.55606 20.2554 6.14181 19.6689L7.74381 18.0684C8.35806 17.4526 9.27081 17.2516 10.0891 17.5441C11.2118 17.9469 12.4103 18.0729 13.5803 17.9236L5.18481 9.52814Z" stroke="#4F4F4F" stroke-linecap="round" stroke-linejoin="round"/>
<path fill-rule="evenodd" clip-rule="evenodd" d="M20.868 16.8047C20.868 18.4614 19.5248 19.8047 17.868 19.8047C16.2105 19.8047 14.868 18.4614 14.868 16.8047C14.868 15.1472 16.2105 13.8047 17.868 13.8047C19.5248 13.8047 20.868 15.1472 20.868 16.8047Z" stroke="#4F4F4F" stroke-linecap="round" stroke-linejoin="round"/>
</svg>
