<svg width="24" height="24" viewBox="0 0 24 24" fill="none" xmlns="http://www.w3.org/2000/svg">
<path d="M12.6482 8.92228C11.1782 8.20153 9.35194 8.45203 8.13019 9.67453L7.16569 10.639C5.93569 10.717 4.72744 11.2203 3.78844 12.16C1.73719 14.2113 1.73719 17.5345 3.78844 19.585C5.83819 21.6355 9.16219 21.6355 11.2127 19.585C12.1524 18.6453 12.6564 17.4378 12.7337 16.207L13.6982 15.2433C14.9042 14.0373 15.1644 12.244 14.4789 10.7845" stroke="#4F4F4F" stroke-linecap="round" stroke-linejoin="round"/>
<path fill-rule="evenodd" clip-rule="evenodd" d="M11.0713 13.8925L9.48059 12.3017L12.3726 9.40896L16.6153 5.16696L18.2068 6.75771L13.9633 11.0005L11.0713 13.8925Z" stroke="#4F4F4F" stroke-linecap="round" stroke-linejoin="round"/>
<path fill-rule="evenodd" clip-rule="evenodd" d="M21.123 4.371L19.002 2.25L16.35 4.90125L18.4718 7.023L21.123 4.371Z" stroke="#4F4F4F" stroke-linecap="round" stroke-linejoin="round"/>
<path d="M5.74371 15.5082L7.86471 17.6292" stroke="#4F4F4F" stroke-linecap="round" stroke-linejoin="round"/>
</svg>
