<svg width="24" height="24" viewBox="0 0 24 24" fill="none" xmlns="http://www.w3.org/2000/svg">
<path d="M4.5 2.73075C4.5 1.62618 5.39543 0.730743 6.5 0.730743H17.5C18.6046 0.730743 19.5 1.62617 19.5 2.73074V20.4676C19.5 21.5722 18.6046 22.4676 17.5 22.4676H6.5C5.39543 22.4676 4.5 21.5722 4.5 20.4676V2.73075Z" stroke="#4F4F4F"/>
<path d="M5.26318 9.72556H18.7369" stroke="#4F4F4F" stroke-linecap="round" stroke-linejoin="round"/>
<path d="M7.78946 5.43835V6.32564" stroke="#4F4F4F" stroke-linecap="round" stroke-linejoin="round"/>
<path d="M7.78946 12.1752V15.5888" stroke="#4F4F4F" stroke-linecap="round" stroke-linejoin="round"/>
<path d="M7.36844 22.7335V23.3044" stroke="#4F4F4F" stroke-linecap="round" stroke-linejoin="round"/>
<path d="M16.6316 22.7335V23.3044" stroke="#4F4F4F" stroke-linecap="round" stroke-linejoin="round"/>
</svg>
