<svg width="24" height="24" viewBox="0 0 24 24" fill="none" xmlns="http://www.w3.org/2000/svg">
<path d="M2.70459 3.9837C2.70459 3.43142 3.15231 2.9837 3.70459 2.9837H19.679C20.2312 2.9837 20.679 3.43142 20.679 3.9837V11.5116H2.70459V3.9837Z" stroke="#4F4F4F" stroke-linecap="round" stroke-linejoin="round"/>
<path d="M15.6254 15.6614C14.5209 15.6614 13.6254 16.5569 13.6254 17.6614V20.4408C13.6254 21.4763 12.786 22.3158 11.7504 22.3158C10.7149 22.3158 9.87543 21.4763 9.87543 20.4408V17.6614C9.87543 16.5569 8.98 15.6614 7.87543 15.6614H4.95459C3.71195 15.6614 2.70459 14.6541 2.70459 13.4114V3.7337C2.70459 3.31949 3.04038 2.9837 3.45459 2.9837H19.929C20.3432 2.9837 20.679 3.31949 20.679 3.7337V13.4114C20.679 14.6541 19.6716 15.6614 18.429 15.6614H15.6254Z" stroke="#4F4F4F" stroke-linecap="round" stroke-linejoin="round"/>
<path d="M11.7793 21.0982C12.1935 21.0982 12.5293 20.7624 12.5293 20.3482C12.5293 19.934 12.1935 19.5982 11.7793 19.5982C11.3651 19.5982 11.0293 19.934 11.0293 20.3482C11.0293 20.7624 11.3651 21.0982 11.7793 21.0982Z" fill="#404852"/>
<path d="M16.708 3.07568V6.87268" stroke="#4F4F4F" stroke-linecap="round" stroke-linejoin="round"/>
</svg>
