<svg width="24" height="24" viewBox="0 0 24 24" fill="none" xmlns="http://www.w3.org/2000/svg">
<path d="M13.4008 4.48884L12.8681 3.96093V3.96093L13.4008 4.48884ZM20.5246 11.6776L19.9919 11.1497C19.9848 11.1568 19.9779 11.1641 19.9711 11.1715L20.5246 11.6776ZM12 21L11.4465 21.5061C11.5886 21.6615 11.7895 21.75 12 21.75C12.2105 21.75 12.4114 21.6615 12.5535 21.5061L12 21ZM3.47538 4.48884L4.00812 5.01676L3.47538 4.48884ZM3.47538 11.6776L4.02887 11.1715C4.0221 11.1641 4.01518 11.1568 4.00812 11.1497L3.47538 11.6776ZM12 5.90246L11.4673 6.43037C11.6081 6.5725 11.7999 6.65246 12 6.65246C12.2001 6.65246 12.3919 6.5725 12.5327 6.43037L12 5.90246ZM10.5992 4.48884L10.0664 5.01676L10.0664 5.01676L10.5992 4.48884ZM13.9336 5.01676C15.6073 3.32775 18.3181 3.32775 19.9919 5.01676L21.0574 3.96093C18.7967 1.67969 15.1287 1.67969 12.8681 3.96093L13.9336 5.01676ZM19.9919 5.01676C21.6694 6.70955 21.6694 9.45691 19.9919 11.1497L21.0574 12.2055C23.3142 9.92807 23.3142 6.23838 21.0574 3.96093L19.9919 5.01676ZM19.9711 11.1715L11.4465 20.4939L12.5535 21.5061L21.0781 12.1837L19.9711 11.1715ZM2.94265 3.96093C0.685783 6.23838 0.685783 9.92807 2.94265 12.2055L4.00812 11.1497C2.33063 9.45691 2.33063 6.70955 4.00812 5.01676L2.94265 3.96093ZM2.9219 12.1837L11.4465 21.5061L12.5535 20.4939L4.02887 11.1715L2.9219 12.1837ZM12.8681 3.96093L11.4673 5.37454L12.5327 6.43037L13.9336 5.01676L12.8681 3.96093ZM11.1319 3.96093C8.87128 1.67969 5.20326 1.67969 2.94265 3.96093L4.00812 5.01676C5.68186 3.32775 8.39269 3.32775 10.0664 5.01676L11.1319 3.96093ZM12.5327 5.37454L11.1319 3.96093L10.0664 5.01676L11.4673 6.43037L12.5327 5.37454Z" fill="#4F4F4F"/>
</svg>
