<svg width="24" height="24" viewBox="0 0 24 24" fill="none" xmlns="http://www.w3.org/2000/svg">
<path d="M21.5209 9.21339C21.8396 9.47799 22.3124 9.43415 22.577 9.11547C22.8416 8.79678 22.7978 8.32394 22.4791 8.05934L21.5209 9.21339ZM2.5209 8.05934C2.20221 8.32394 2.15837 8.79678 2.42297 9.11547C2.68757 9.43415 3.16042 9.47799 3.4791 9.21339L2.5209 8.05934ZM20.5192 14.8182C20.5192 14.805 20.5138 14.8964 20.4069 15.1201C20.3098 15.3234 20.1563 15.5794 19.944 15.8726C19.5201 16.4579 18.894 17.1469 18.1113 17.8046C16.535 19.129 14.417 20.25 12.1346 20.25V21.75C14.8972 21.75 17.3464 20.4064 19.0762 18.953C19.9466 18.2217 20.6582 17.4436 21.1588 16.7524C21.4087 16.4073 21.6142 16.0727 21.7604 15.7668C21.8968 15.4811 22.0192 15.1445 22.0192 14.8182H20.5192ZM12.1346 20.25C9.85228 20.25 7.73422 19.129 6.15793 17.8046C5.37523 17.1469 4.74916 16.4579 4.32528 15.8726C4.11294 15.5794 3.95946 15.3234 3.8623 15.1201C3.75542 14.8964 3.75 14.805 3.75 14.8182H2.25C2.25 15.1445 2.37239 15.4811 2.50887 15.7668C2.65507 16.0727 2.86051 16.4073 3.11041 16.7524C3.611 17.4436 4.32266 18.2217 5.193 18.953C6.92279 20.4064 9.37204 21.75 12.1346 21.75V20.25ZM3.75 14.8182C3.75 14.8314 3.75542 14.74 3.8623 14.5163C3.95946 14.313 4.11294 14.057 4.32528 13.7638C4.74916 13.1785 5.37523 12.4894 6.15793 11.8318C7.73422 10.5074 9.85228 9.38636 12.1346 9.38636V7.88636C9.37204 7.88636 6.92279 9.22999 5.193 10.6834C4.32266 11.4146 3.611 12.1927 3.11041 12.884C2.86051 13.229 2.65507 13.5636 2.50887 13.8696C2.37239 14.1552 2.25 14.4919 2.25 14.8182H3.75ZM12.1346 9.38636C14.417 9.38636 16.535 10.5074 18.1113 11.8318C18.894 12.4894 19.5201 13.1785 19.944 13.7638C20.1563 14.057 20.3098 14.313 20.4069 14.5163C20.5138 14.74 20.5192 14.8314 20.5192 14.8182H22.0192C22.0192 14.4919 21.8968 14.1552 21.7604 13.8696C21.6142 13.5636 21.4087 13.229 21.1588 12.884C20.6582 12.1927 19.9466 11.4146 19.0762 10.6834C17.3464 9.22999 14.8972 7.88636 12.1346 7.88636V9.38636ZM15.4038 12.6364C15.4038 14.4279 13.9436 15.8864 12.1346 15.8864V17.3864C14.7652 17.3864 16.9038 15.2631 16.9038 12.6364H15.4038ZM12.1346 15.8864C10.3257 15.8864 8.86538 14.4279 8.86538 12.6364H7.36538C7.36538 15.2631 9.50404 17.3864 12.1346 17.3864V15.8864ZM8.86538 12.6364C8.86538 10.8448 10.3257 9.38636 12.1346 9.38636V7.88636C9.50404 7.88636 7.36538 10.0096 7.36538 12.6364H8.86538ZM12.1346 9.38636C13.9436 9.38636 15.4038 10.8448 15.4038 12.6364H16.9038C16.9038 10.0096 14.7652 7.88636 12.1346 7.88636V9.38636ZM12.5 5.75C15.7691 5.75 18.8523 6.99769 21.5209 9.21339L22.4791 8.05934C19.5831 5.65485 16.1699 4.25 12.5 4.25V5.75ZM3.4791 9.21339C6.14769 6.99769 9.2309 5.75 12.5 5.75V4.25C8.83008 4.25 5.41686 5.65485 2.5209 8.05934L3.4791 9.21339Z" fill="#4F4F4F"/>
</svg>
