<svg width="20" height="20" viewBox="0 0 20 20" fill="none" xmlns="http://www.w3.org/2000/svg">
<path fill-rule="evenodd" clip-rule="evenodd" d="M4.19671 2.04752C7.12583 -0.682507 11.8746 -0.682507 14.8033 2.04752C17.4424 4.50754 17.7394 9.13951 15.4998 11.923L9.5 20L3.50022 11.923C1.26056 9.13951 1.55764 4.50754 4.19671 2.04752ZM11.5 7C11.5 8.10457 10.6046 9 9.5 9C8.39543 9 7.5 8.10457 7.5 7C7.5 5.89543 8.39543 5 9.5 5C10.6046 5 11.5 5.89543 11.5 7Z" fill="#4F4F4F"/>
</svg>
